 
cpldfit:  version P.20131013                        Xilinx Inc.
                                  Fitter Report
Design Name: adder3bit                           Date: 10-13-2020,  8:09PM
Device Used: XC95144XL-10-TQ100
Fitting Status: Successful

*************************  Mapped Resource Summary  **************************

Macrocells     Product Terms    Function Block   Registers      Pins           
Used/Tot       Used/Tot         Inps Used/Tot    Used/Tot       Used/Tot       
5  /144 (  3%) 35  /720  (  5%) 18 /432 (  4%)   0  /144 (  0%) 11 /81  ( 14%)

** Function Block Resources **

Function    Mcells      FB Inps     Pterms      IO          
Block       Used/Tot    Used/Tot    Used/Tot    Used/Tot    
FB1           1/18        3/54        3/90       1/11
FB2           1/18        3/54        3/90       3/10
FB3           1/18        7/54       15/90       1/10
FB4           2/18        5/54       14/90       3/10
FB5           0/18        0/54        0/90       0/10
FB6           0/18        0/54        0/90       1/10
FB7           0/18        0/54        0/90       1/10
FB8           0/18        0/54        0/90       1/10
             -----       -----       -----      -----    
              5/144      18/432      35/720     11/81 

* - Resource is exhausted

** Global Control Resources **

Global clock net(s) unused.
Global output enable net(s) unused.
Global set/reset net(s) unused.

** Pin Resources **

Signal Type    Required     Mapped  |  Pin Type            Used    Total 
------------------------------------|------------------------------------
Input         :    7           7    |  I/O              :    11      73
Output        :    4           4    |  GCK/IO           :     0       3
Bidirectional :    0           0    |  GTS/IO           :     0       4
GCK           :    0           0    |  GSR/IO           :     0       1
GTS           :    0           0    |
GSR           :    0           0    |
                 ----        ----
        Total     11          11

** Power Data **

There are 5 macrocells in high performance mode (MCHP).
There are 0 macrocells in low power mode (MCLP).
End of Mapped Resource Summary
**************************  Errors and Warnings  ***************************

WARNING:Cpld - Unable to retrieve the path to the iSE Project Repository. Will
   use the default filename of 'adder3bit.ise'.
*************************  Summary of Mapped Logic  ************************

** 4 Outputs **

Signal                Total Total Loc     Pin  Pin     Pin     Pwr  Slew Reg Init
Name                  Pts   Inps          No.  Type    Use     Mode Rate State
R<0>                  3     3     FB1_2   11   I/O     O       STD  FAST 
R<2>                  3     3     FB2_11  6    I/O     O       STD  FAST 
Cout                  15    7     FB3_5   24   I/O     O       STD  FAST 
R<1>                  7     5     FB4_2   87   I/O     O       STD  FAST 

** 1 Buried Nodes **

Signal                Total Total Loc     Pwr  Reg Init
Name                  Pts   Inps          Mode State
carry<2>/carry<2>_D2  7     5     FB4_18  STD  

** 7 Inputs **

Signal                Loc     Pin  Pin     Pin     
Name                          No.  Type    Use     
A<0>                  FB2_14  8    I/O     I
A<1>                  FB2_15  9    I/O     I
B<1>                  FB4_8   91   I/O     I
B<0>                  FB4_9   92   I/O     I
B<2>                  FB6_9   79   I/O     I
A<2>                  FB7_12  58   I/O     I
Cin                   FB8_14  71   I/O     I

Legend:
Pin No. - ~ - User Assigned
**************************  Function Block Details  ************************
Legend:
Total Pt     - Total product terms used by the macrocell signal
Imp Pt       - Product terms imported from other macrocells
Exp Pt       - Product terms exported to other macrocells
               in direction shown
Unused Pt    - Unused local product terms remaining in macrocell
Loc          - Location where logic was mapped in device
Pin Type/Use - I  - Input             GCK - Global Clock
               O  - Output            GTS - Global Output Enable
              (b) - Buried macrocell  GSR - Global Set/Reset
X            - Signal used as input to the macrocell logic.
Pin No.      - ~  - User Assigned
*********************************** FB1  ***********************************
Number of function block inputs used/remaining:               3/51
Number of signals used by logic mapping into function block:  3
Signal              Total   Imp   Exp Unused  Loc     Pin   Pin     Pin
Name                Pt      Pt    Pt  Pt               #    Type    Use
(unused)              0       0     0   5     FB1_1         (b)     
R<0>                  3       0     0   2     FB1_2   11    I/O     O
(unused)              0       0     0   5     FB1_3   12    I/O     
(unused)              0       0     0   5     FB1_4         (b)     
(unused)              0       0     0   5     FB1_5   13    I/O     
(unused)              0       0     0   5     FB1_6   14    I/O     
(unused)              0       0     0   5     FB1_7         (b)     
(unused)              0       0     0   5     FB1_8   15    I/O     
(unused)              0       0     0   5     FB1_9   16    I/O     
(unused)              0       0     0   5     FB1_10        (b)     
(unused)              0       0     0   5     FB1_11  17    I/O     
(unused)              0       0     0   5     FB1_12  18    I/O     
(unused)              0       0     0   5     FB1_13        (b)     
(unused)              0       0     0   5     FB1_14  19    I/O     
(unused)              0       0     0   5     FB1_15  20    I/O     
(unused)              0       0     0   5     FB1_16        (b)     
(unused)              0       0     0   5     FB1_17  22    GCK/I/O 
(unused)              0       0     0   5     FB1_18        (b)     

Signals Used by Logic in Function Block
  1: A<0>               2: B<0>               3: Cin 

Signal                        1         2         3         4 FB
Name                0----+----0----+----0----+----0----+----0 Inputs
R<0>                 XXX..................................... 3
                    0----+----1----+----2----+----3----+----4
                              0         0         0         0
*********************************** FB2  ***********************************
Number of function block inputs used/remaining:               3/51
Number of signals used by logic mapping into function block:  3
Signal              Total   Imp   Exp Unused  Loc     Pin   Pin     Pin
Name                Pt      Pt    Pt  Pt               #    Type    Use
(unused)              0       0     0   5     FB2_1         (b)     
(unused)              0       0     0   5     FB2_2   99    GSR/I/O 
(unused)              0       0     0   5     FB2_3         (b)     
(unused)              0       0     0   5     FB2_4         (b)     
(unused)              0       0     0   5     FB2_5   1     GTS/I/O 
(unused)              0       0     0   5     FB2_6   2     GTS/I/O 
(unused)              0       0     0   5     FB2_7         (b)     
(unused)              0       0     0   5     FB2_8   3     GTS/I/O 
(unused)              0       0     0   5     FB2_9   4     GTS/I/O 
(unused)              0       0     0   5     FB2_10        (b)     
R<2>                  3       0     0   2     FB2_11  6     I/O     O
(unused)              0       0     0   5     FB2_12  7     I/O     
(unused)              0       0     0   5     FB2_13        (b)     
(unused)              0       0     0   5     FB2_14  8     I/O     I
(unused)              0       0     0   5     FB2_15  9     I/O     I
(unused)              0       0     0   5     FB2_16        (b)     
(unused)              0       0     0   5     FB2_17  10    I/O     
(unused)              0       0     0   5     FB2_18        (b)     

Signals Used by Logic in Function Block
  1: A<2>               2: B<2>               3: carry<2>/carry<2>_D2 

Signal                        1         2         3         4 FB
Name                0----+----0----+----0----+----0----+----0 Inputs
R<2>                 XXX..................................... 3
                    0----+----1----+----2----+----3----+----4
                              0         0         0         0
*********************************** FB3  ***********************************
Number of function block inputs used/remaining:               7/47
Number of signals used by logic mapping into function block:  7
Signal              Total   Imp   Exp Unused  Loc     Pin   Pin     Pin
Name                Pt      Pt    Pt  Pt               #    Type    Use
(unused)              0       0     0   5     FB3_1         (b)     
(unused)              0       0     0   5     FB3_2   23    GCK/I/O 
(unused)              0       0     0   5     FB3_3         (b)     
(unused)              0       0   \/5   0     FB3_4         (b)     (b)
Cout                 15      10<-   0   0     FB3_5   24    I/O     O
(unused)              0       0   /\5   0     FB3_6   25    I/O     (b)
(unused)              0       0     0   5     FB3_7         (b)     
(unused)              0       0     0   5     FB3_8   27    GCK/I/O 
(unused)              0       0     0   5     FB3_9   28    I/O     
(unused)              0       0     0   5     FB3_10        (b)     
(unused)              0       0     0   5     FB3_11  29    I/O     
(unused)              0       0     0   5     FB3_12  30    I/O     
(unused)              0       0     0   5     FB3_13        (b)     
(unused)              0       0     0   5     FB3_14  32    I/O     
(unused)              0       0     0   5     FB3_15  33    I/O     
(unused)              0       0     0   5     FB3_16        (b)     
(unused)              0       0     0   5     FB3_17  34    I/O     
(unused)              0       0     0   5     FB3_18        (b)     

Signals Used by Logic in Function Block
  1: A<0>               4: B<0>               6: B<2> 
  2: A<1>               5: B<1>               7: Cin 
  3: A<2>             

Signal                        1         2         3         4 FB
Name                0----+----0----+----0----+----0----+----0 Inputs
Cout                 XXXXXXX................................. 7
                    0----+----1----+----2----+----3----+----4
                              0         0         0         0
*********************************** FB4  ***********************************
Number of function block inputs used/remaining:               5/49
Number of signals used by logic mapping into function block:  5
Signal              Total   Imp   Exp Unused  Loc     Pin   Pin     Pin
Name                Pt      Pt    Pt  Pt               #    Type    Use
(unused)              0       0   \/1   4     FB4_1         (b)     (b)
R<1>                  7       2<-   0   0     FB4_2   87    I/O     O
(unused)              0       0   /\1   4     FB4_3         (b)     (b)
(unused)              0       0     0   5     FB4_4         (b)     
(unused)              0       0     0   5     FB4_5   89    I/O     
(unused)              0       0     0   5     FB4_6   90    I/O     
(unused)              0       0     0   5     FB4_7         (b)     
(unused)              0       0     0   5     FB4_8   91    I/O     I
(unused)              0       0     0   5     FB4_9   92    I/O     I
(unused)              0       0     0   5     FB4_10        (b)     
(unused)              0       0     0   5     FB4_11  93    I/O     
(unused)              0       0     0   5     FB4_12  94    I/O     
(unused)              0       0     0   5     FB4_13        (b)     
(unused)              0       0     0   5     FB4_14  95    I/O     
(unused)              0       0     0   5     FB4_15  96    I/O     
(unused)              0       0     0   5     FB4_16        (b)     
(unused)              0       0   \/2   3     FB4_17  97    I/O     (b)
carry<2>/carry<2>_D2
                      7       2<-   0   0     FB4_18        (b)     (b)

Signals Used by Logic in Function Block
  1: A<0>               3: B<0>               5: Cin 
  2: A<1>               4: B<1>             

Signal                        1         2         3         4 FB
Name                0----+----0----+----0----+----0----+----0 Inputs
R<1>                 XXXXX................................... 5
carry<2>/carry<2>_D2 
                     XXXXX................................... 5
                    0----+----1----+----2----+----3----+----4
                              0         0         0         0
*********************************** FB5  ***********************************
Number of function block inputs used/remaining:               0/54
Number of signals used by logic mapping into function block:  0
Signal              Total   Imp   Exp Unused  Loc     Pin   Pin     Pin
Name                Pt      Pt    Pt  Pt               #    Type    Use
(unused)              0       0     0   5     FB5_1         (b)     
(unused)              0       0     0   5     FB5_2   35    I/O     
(unused)              0       0     0   5     FB5_3         (b)     
(unused)              0       0     0   5     FB5_4         (b)     
(unused)              0       0     0   5     FB5_5   36    I/O     
(unused)              0       0     0   5     FB5_6   37    I/O     
(unused)              0       0     0   5     FB5_7         (b)     
(unused)              0       0     0   5     FB5_8   39    I/O     
(unused)              0       0     0   5     FB5_9   40    I/O     
(unused)              0       0     0   5     FB5_10        (b)     
(unused)              0       0     0   5     FB5_11  41    I/O     
(unused)              0       0     0   5     FB5_12  42    I/O     
(unused)              0       0     0   5     FB5_13        (b)     
(unused)              0       0     0   5     FB5_14  43    I/O     
(unused)              0       0     0   5     FB5_15  46    I/O     
(unused)              0       0     0   5     FB5_16        (b)     
(unused)              0       0     0   5     FB5_17  49    I/O     
(unused)              0       0     0   5     FB5_18        (b)     
*********************************** FB6  ***********************************
Number of function block inputs used/remaining:               0/54
Number of signals used by logic mapping into function block:  0
Signal              Total   Imp   Exp Unused  Loc     Pin   Pin     Pin
Name                Pt      Pt    Pt  Pt               #    Type    Use
(unused)              0       0     0   5     FB6_1         (b)     
(unused)              0       0     0   5     FB6_2   74    I/O     
(unused)              0       0     0   5     FB6_3         (b)     
(unused)              0       0     0   5     FB6_4         (b)     
(unused)              0       0     0   5     FB6_5   76    I/O     
(unused)              0       0     0   5     FB6_6   77    I/O     
(unused)              0       0     0   5     FB6_7         (b)     
(unused)              0       0     0   5     FB6_8   78    I/O     
(unused)              0       0     0   5     FB6_9   79    I/O     I
(unused)              0       0     0   5     FB6_10        (b)     
(unused)              0       0     0   5     FB6_11  80    I/O     
(unused)              0       0     0   5     FB6_12  81    I/O     
(unused)              0       0     0   5     FB6_13        (b)     
(unused)              0       0     0   5     FB6_14  82    I/O     
(unused)              0       0     0   5     FB6_15  85    I/O     
(unused)              0       0     0   5     FB6_16        (b)     
(unused)              0       0     0   5     FB6_17  86    I/O     
(unused)              0       0     0   5     FB6_18        (b)     
*********************************** FB7  ***********************************
Number of function block inputs used/remaining:               0/54
Number of signals used by logic mapping into function block:  0
Signal              Total   Imp   Exp Unused  Loc     Pin   Pin     Pin
Name                Pt      Pt    Pt  Pt               #    Type    Use
(unused)              0       0     0   5     FB7_1         (b)     
(unused)              0       0     0   5     FB7_2   50    I/O     
(unused)              0       0     0   5     FB7_3         (b)     
(unused)              0       0     0   5     FB7_4         (b)     
(unused)              0       0     0   5     FB7_5   52    I/O     
(unused)              0       0     0   5     FB7_6   53    I/O     
(unused)              0       0     0   5     FB7_7         (b)     
(unused)              0       0     0   5     FB7_8   54    I/O     
(unused)              0       0     0   5     FB7_9   55    I/O     
(unused)              0       0     0   5     FB7_10        (b)     
(unused)              0       0     0   5     FB7_11  56    I/O     
(unused)              0       0     0   5     FB7_12  58    I/O     I
(unused)              0       0     0   5     FB7_13        (b)     
(unused)              0       0     0   5     FB7_14  59    I/O     
(unused)              0       0     0   5     FB7_15  60    I/O     
(unused)              0       0     0   5     FB7_16        (b)     
(unused)              0       0     0   5     FB7_17  61    I/O     
(unused)              0       0     0   5     FB7_18        (b)     
*********************************** FB8  ***********************************
Number of function block inputs used/remaining:               0/54
Number of signals used by logic mapping into function block:  0
Signal              Total   Imp   Exp Unused  Loc     Pin   Pin     Pin
Name                Pt      Pt    Pt  Pt               #    Type    Use
(unused)              0       0     0   5     FB8_1         (b)     
(unused)              0       0     0   5     FB8_2   63    I/O     
(unused)              0       0     0   5     FB8_3         (b)     
(unused)              0       0     0   5     FB8_4         (b)     
(unused)              0       0     0   5     FB8_5   64    I/O     
(unused)              0       0     0   5     FB8_6   65    I/O     
(unused)              0       0     0   5     FB8_7         (b)     
(unused)              0       0     0   5     FB8_8   66    I/O     
(unused)              0       0     0   5     FB8_9   67    I/O     
(unused)              0       0     0   5     FB8_10        (b)     
(unused)              0       0     0   5     FB8_11  68    I/O     
(unused)              0       0     0   5     FB8_12  70    I/O     
(unused)              0       0     0   5     FB8_13        (b)     
(unused)              0       0     0   5     FB8_14  71    I/O     I
(unused)              0       0     0   5     FB8_15  72    I/O     
(unused)              0       0     0   5     FB8_16        (b)     
(unused)              0       0     0   5     FB8_17  73    I/O     
(unused)              0       0     0   5     FB8_18        (b)     
*******************************  Equations  ********************************

********** Mapped Logic **********


Cout <= ((A(0) AND B(0) AND A(1) AND A(2))
	OR (A(0) AND A(1) AND B(2) AND Cin)
	OR (A(0) AND B(1) AND B(2) AND Cin)
	OR (B(0) AND A(1) AND A(2) AND Cin)
	OR (B(0) AND B(1) AND A(2) AND Cin)
	OR (A(2) AND B(2))
	OR (A(1) AND B(1) AND A(2))
	OR (A(1) AND B(1) AND B(2))
	OR (A(0) AND A(1) AND A(2) AND Cin)
	OR (A(0) AND B(1) AND A(2) AND Cin)
	OR (A(0) AND B(0) AND A(1) AND B(2))
	OR (A(0) AND B(0) AND B(1) AND A(2))
	OR (A(0) AND B(0) AND B(1) AND B(2))
	OR (B(0) AND A(1) AND B(2) AND Cin)
	OR (B(0) AND B(1) AND B(2) AND Cin));












R(0) <= NOT (A(0)
	 XOR 
R(0) <= NOT (((B(0) AND Cin)
	OR (NOT B(0) AND NOT Cin)));


R(1) <= NOT (A(1)
	 XOR 
R(1) <= NOT (((B(0) AND B(1) AND Cin)
	OR (NOT B(0) AND NOT B(1) AND NOT Cin)
	OR (A(0) AND B(0) AND B(1))
	OR (A(0) AND B(1) AND Cin)
	OR (NOT A(0) AND NOT B(0) AND NOT B(1))
	OR (NOT A(0) AND NOT B(1) AND NOT Cin)));


R(2) <= NOT (A(2)
	 XOR 
R(2) <= NOT (((B(2) AND carry(2)/carry(2)_D2)
	OR (NOT B(2) AND NOT carry(2)/carry(2)_D2)));


carry(2)/carry(2)_D2 <= ((A(0) AND B(1) AND Cin)
	OR (B(0) AND B(1) AND Cin)
	OR (A(1) AND B(1))
	OR (A(0) AND B(0) AND A(1))
	OR (A(0) AND B(0) AND B(1))
	OR (A(0) AND A(1) AND Cin)
	OR (B(0) AND A(1) AND Cin));

Register Legend:
 FDCPE (Q,D,C,CLR,PRE,CE); 
 FTCPE (Q,D,C,CLR,PRE,CE); 
 LDCP  (Q,D,G,CLR,PRE); 

******************************  Device Pin Out *****************************

Device : XC95144XL-10-TQ100


   --------------------------------------------------  
  /100 98  96  94  92  90  88  86  84  82  80  78  76  \
 |   99  97  95  93  91  89  87  85  83  81  79  77    |
 | 1                                               75  | 
 | 2                                               74  | 
 | 3                                               73  | 
 | 4                                               72  | 
 | 5                                               71  | 
 | 6                                               70  | 
 | 7                                               69  | 
 | 8                                               68  | 
 | 9                                               67  | 
 | 10                                              66  | 
 | 11                                              65  | 
 | 12                                              64  | 
 | 13              XC95144XL-10-TQ100              63  | 
 | 14                                              62  | 
 | 15                                              61  | 
 | 16                                              60  | 
 | 17                                              59  | 
 | 18                                              58  | 
 | 19                                              57  | 
 | 20                                              56  | 
 | 21                                              55  | 
 | 22                                              54  | 
 | 23                                              53  | 
 | 24                                              52  | 
 | 25                                              51  | 
 |   27  29  31  33  35  37  39  41  43  45  47  49    |
  \26  28  30  32  34  36  38  40  42  44  46  48  50  /
   --------------------------------------------------  


Pin Signal                         Pin Signal                        
No. Name                           No. Name                          
  1 KPR                              51 VCC                           
  2 KPR                              52 KPR                           
  3 KPR                              53 KPR                           
  4 KPR                              54 KPR                           
  5 VCC                              55 KPR                           
  6 R<2>                             56 KPR                           
  7 KPR                              57 VCC                           
  8 A<0>                             58 A<2>                          
  9 A<1>                             59 KPR                           
 10 KPR                              60 KPR                           
 11 R<0>                             61 KPR                           
 12 KPR                              62 GND                           
 13 KPR                              63 KPR                           
 14 KPR                              64 KPR                           
 15 KPR                              65 KPR                           
 16 KPR                              66 KPR                           
 17 KPR                              67 KPR                           
 18 KPR                              68 KPR                           
 19 KPR                              69 GND                           
 20 KPR                              70 KPR                           
 21 GND                              71 Cin                           
 22 KPR                              72 KPR                           
 23 KPR                              73 KPR                           
 24 Cout                             74 KPR                           
 25 KPR                              75 GND                           
 26 VCC                              76 KPR                           
 27 KPR                              77 KPR                           
 28 KPR                              78 KPR                           
 29 KPR                              79 B<2>                          
 30 KPR                              80 KPR                           
 31 GND                              81 KPR                           
 32 KPR                              82 KPR                           
 33 KPR                              83 TDO                           
 34 KPR                              84 GND                           
 35 KPR                              85 KPR                           
 36 KPR                              86 KPR                           
 37 KPR                              87 R<1>                          
 38 VCC                              88 VCC                           
 39 KPR                              89 KPR                           
 40 KPR                              90 KPR                           
 41 KPR                              91 B<1>                          
 42 KPR                              92 B<0>                          
 43 KPR                              93 KPR                           
 44 GND                              94 KPR                           
 45 TDI                              95 KPR                           
 46 KPR                              96 KPR                           
 47 TMS                              97 KPR                           
 48 TCK                              98 VCC                           
 49 KPR                              99 KPR                           
 50 KPR                             100 GND                           


Legend :  NC  = Not Connected, unbonded pin
         PGND = Unused I/O configured as additional Ground pin
         TIE  = Unused I/O floating -- must tie to VCC, GND or other signal
         KPR  = Unused I/O with weak keeper (leave unconnected)
         VCC  = Dedicated Power Pin
         GND  = Dedicated Ground Pin
         TDI  = Test Data In, JTAG pin
         TDO  = Test Data Out, JTAG pin
         TCK  = Test Clock, JTAG pin
         TMS  = Test Mode Select, JTAG pin
  PROHIBITED  = User reserved pin
****************************  Compiler Options  ****************************

Following is a list of all global compiler options used by the fitter run.

Device(s) Specified                         : xc95144xl-10-TQ100
Optimization Method                         : SPEED
Multi-Level Logic Optimization              : ON
Ignore Timing Specifications                : OFF
Default Register Power Up Value             : LOW
Keep User Location Constraints              : ON
What-You-See-Is-What-You-Get                : OFF
Exhaustive Fitting                          : OFF
Keep Unused Inputs                          : OFF
Slew Rate                                   : FAST
Power Mode                                  : STD
Ground on Unused IOs                        : OFF
Set I/O Pin Termination                     : KEEPER
Global Clock Optimization                   : ON
Global Set/Reset Optimization               : ON
Global Ouput Enable Optimization            : ON
Input Limit                                 : 54
Pterm Limit                                 : 25
